2_1/project_2_1/project_2_1.sim/sim_1/behav/xsim/simulate.log
Time resolution is 1 ps
Time	EN	I[7:0]	Y[2:0]	GS	GC

=== 测试1: 使能无效 ===
0	0	00000000	000	0	0
20000	0	00100000	000	0	0
40000	0	01000000	000	0	0
60000	0	01100000	000	0	0
80000	0	10000000	000	0	0
100000	0	10100000	000	0	0
120000	0	11000000	000	0	0
140000	0	11100000	000	0	0

=== 测试2: 单个输入有效 ===
160000	1	00000000	000	0	1
180000	1	00000001	000	1	0
200000	1	00000010	001	1	0
220000	1	00000100	010	1	0
240000	1	00001000	011	1	0
260000	1	00010000	100	1	0
280000	1	00100000	101	1	0
300000	1	01000000	110	1	0
320000	1	10000000	111	1	0

=== 测试3: 多个输入同时有效 ===
340000	1	00000011	001	1	0
360000	1	00000111	010	1	0
380000	1	00001111	011	1	0
400000	1	00011111	100	1	0
420000	1	00111111	101	1	0
440000	1	01111111	110	1	0
460000	1	11111111	111	1	0

=== 测试4: 特殊模式 ===
480000	1	10101010	111	1	0
500000	1	01010101	110	1	0
520000	1	11111111	111	1	0
540000	1	10000001	111	1	0

=== 仿真完成 ===
$finish called at time : 560 ns : File "/home/leo/vivado_project/2_1/project_2_1/project_2_1.srcs/sim_1/new/test.v" Line 71
