2_2/2_2.sim/sim_1/behav/xsim/simulate.log
Vivado Simulator 2020.2
Time resolution is 1 ps
Time	RST	A	B	AGTB	AEQB	ALTB

=== 测试1: 使能无效 ===
0	0	00	00	0	0	0
20000	0	00	01	0	0	0
40000	0	00	10	0	0	0
60000	0	00	11	0	0	0
80000	0	01	00	0	0	0
100000	0	01	01	0	0	0
120000	0	01	10	0	0	0
140000	0	01	11	0	0	0
160000	0	10	00	0	0	0
180000	0	10	01	0	0	0
200000	0	10	10	0	0	0
220000	0	10	11	0	0	0
240000	0	11	00	0	0	0
260000	0	11	01	0	0	0
280000	0	11	10	0	0	0
300000	0	11	11	0	0	0

=== 测试2: 全面比较测试 ===
320000	1	00	00	0	1	0
340000	1	00	01	0	0	1
360000	1	00	10	0	0	1
380000	1	00	11	0	0	1
400000	1	01	00	1	0	0
420000	1	01	01	0	1	0
440000	1	01	10	0	0	1
460000	1	01	11	0	0	1
480000	1	10	00	1	0	0
500000	1	10	01	1	0	0
520000	1	10	10	0	1	0
540000	1	10	11	0	0	1
560000	1	11	00	1	0	0
580000	1	11	01	1	0	0
600000	1	11	10	1	0	0
620000	1	11	11	0	1	0

=== 测试3: 边界情况 ===
660000	1	11	10	1	0	0
680000	1	00	00	0	1	0
700000	1	00	01	0	0	1

=== 仿真完成 ===
$finish called at time : 720 ns : File "E:/xilinx/vivado_project/2_2/2_2.srcs/sim_1/new/test.v" Line 71
