4_original/4_original.sim/sim_1/behav/xsim/vending_machine.vcd
$date
   Fri Nov 21 19:23:11 2025
$end

$version
  2023.2
  $dumpfile ("vending_machine.vcd") 
$end

$timescale
  1ps
$end

$scope module tb_vending_machine $end
$var reg 1 ! clk $end
$var reg 1 " rstn $end
$var reg 2 # coin [1:0] $end
$var wire 1 $ sell $end
$var wire 1 % change $end
$var wire 2 & current_state [1:0] $end
$var reg 40 ' state_name [39:0] $end
$var reg 80 ( description [79:0] $end
$scope module dut $end
$var wire 1 ) clk $end
$var wire 1 * rstn $end
$var wire 2 + coin [1:0] $end
$var reg 1 , sell $end
$var reg 1 - change $end
$var reg 2 . current_state [1:0] $end
$var reg 2 / next_state [1:0] $end
$upscope $end
$upscope $end
$enddefinitions $end

#0
$dumpvars
0!
0"
b0 #
0$
0%
b0 &
b1001001010001000100110001000101 '
b11111111111001011111111111111111111111111000101011111111111111111111111110000001 (
0)
0*
b0 +
0,
0-
b0 .
b0 /
$end

#5000
1!
1)

#10000
0!
0)

#15000
1!
1)

#20000
0!
0)

#25000
1!
1)

#30000
0!
1"
0)
1*

#35000
1!
1)

#40000
0!
0)

#45000
1!
1)

#50000
0!
b1 #
b11111111111001011111111110100101001100000010111011111111111111111111111110000011 (
0)
b1 +
b1 /

#55000
1!
b1 &
b100011101000101010101000011000000110101 '
1)
b1 .
b10 /

#60000
0!
0)

#65000
1!
b10 &
b100011101000101010101000011000100110000 '
1)
b10 .
b11 /

#70000
0!
0)

#75000
1!
b11 &
b100011101000101010101000011000100110101 '
1)
b11 .
b0 /

#80000
0!
0)

#85000
1!
1$
b0 &
b1001001010001000100110001000101 '
1)
1,
b0 .
b1 /

#90000
0!
b0 #
b11111111111010001111111111111111111111111010111011111111111111111111111110010000 (
0)
b0 +
b0 /

#95000
1!
0$
b11111111111001011111111111111111111111111000101011111111111111111111111110000001 (
1)
0,

#100000
0!
0)

#105000
1!
1)

#110000
0!
b10 #
b11111111100010101111111111111111111111111010010111111111111111111111111110000011 (
0)
b10 +
b10 /

#115000
1!
b10 &
b100011101000101010101000011000100110000 '
1)
b10 .
b0 /

#120000
0!
0)

#125000
1!
1$
b0 &
b1001001010001000100110001000101 '
1)
1,
b0 .
b10 /

#130000
0!
b0 #
b11111111111010001111111111111111111111111010111011111111111111111111111110010000 (
0)
b0 +
b0 /

#135000
1!
0$
b11111111111001011111111111111111111111111000101011111111111111111111111110000001 (
1)
0,

#140000
0!
0)

#145000
1!
1)

#150000
0!
b10 #
b11111111100010101111111111111111111111111010010111111111111111111111111110000011 (
0)
b10 +
b10 /

#155000
1!
b10 &
b100011101000101010101000011000100110000 '
1)
b10 .
b0 /

#160000
0!
b1 #
b11111111111001011111111110100101001100000010111011111111111111111111111110000011 (
0)
b1 +
b11 /

#165000
1!
b11 &
b100011101000101010101000011000100110101 '
1)
b11 .
b0 /

#170000
0!
0)

#175000
1!
1$
b0 &
b1001001010001000100110001000101 '
1)
1,
b0 .
b1 /

#180000
0!
b0 #
b11111111111010001111111111111111111111111010111011111111111111111111111110010000 (
0)
b0 +
b0 /

#185000
1!
0$
b11111111111001011111111111111111111111111000101011111111111111111111111110000001 (
1)
0,

#190000
0!
0)

#195000
1!
1)

#200000
0!
b10 #
b11111111100010101111111111111111111111111010010111111111111111111111111110000011 (
0)
b10 +
b10 /

#205000
1!
b10 &
b100011101000101010101000011000100110000 '
1)
b10 .
b0 /

#210000
0!
b1 #
b11111111111001011111111110100101001100000010111011111111111111111111111110000011 (
0)
b1 +
b11 /

#215000
1!
b11 &
b100011101000101010101000011000100110101 '
1)
b11 .
b0 /

#220000
0!
b10 #
b11111111100010101111111111111111111111111010010111111111111111111111111110000011 (
0)
b10 +
b0 /

#225000
1!
1$
1%
b0 &
b1001001010001000100110001000101 '
1)
1,
1-
b0 .
b10 /

#230000
0!
b0 #
b11111111111010011111111110110110001100000010111011111111111111111111111110000011 (
0)
b0 +
b0 /

#235000
1!
0$
0%
b11111111111001011111111111111111111111111000101011111111111111111111111110000001 (
1)
0,
0-

#240000
0!
0)

#245000
1!
1)

#250000
0!
b1 #
b11111111111001011111111110100101001100000010111011111111111111111111111110000011 (
0)
b1 +
b1 /

#255000
1!
b1 &
b100011101000101010101000011000000110101 '
1)
b1 .
b10 /

#260000
0!
b10 #
b11111111100010101111111111111111111111111010010111111111111111111111111110000011 (
0)
b10 +
b11 /

#265000
1!
b11 &
b100011101000101010101000011000100110101 '
1)
b11 .
b0 /

#270000
0!
b1 #
b11111111111001011111111110100101001100000010111011111111111111111111111110000011 (
0)
b1 +
b0 /

#275000
1!
1$
b0 &
b1001001010001000100110001000101 '
1)
1,
b0 .
b1 /

#280000
0!
b0 #
b11111111111010001111111111111111111111111010111011111111111111111111111110010000 (
0)
b0 +
b0 /

#285000
1!
0$
b11111111111001011111111111111111111111111000101011111111111111111111111110000001 (
1)
0,

#290000
0!
0)

#295000
1!
1)

#300000
0!
b11 #
b11111111111001101111111111111111111111111000101011111111111111111111111110000001 (
0)
b11 +

#305000
1!
1)

#310000
0!
b0 #
b11111111111001011111111111111111111111111000101011111111111111111111111110000001 (
0)
b0 +

#315000
1!
1)

#320000
0!
b1 #
b11111111111001011111111110100101001100000010111011111111111111111111111110000011 (
0)
b1 +
b1 /

#325000
1!
b1 &
b100011101000101010101000011000000110101 '
1)
b1 .
b10 /

#330000
0!
b0 #
b11111111111001011111111111111111111111111000101011111111111111111111111110000001 (
0)
b0 +
b1 /

#335000
1!
1)

#340000
0!
0"
b0 &
b1001001010001000100110001000101 '
0)
0*
b0 .
b0 /

#345000
1!
1)

#350000
0!
0)

#355000
1!
1)

#360000
0!
1"
0)
1*

#365000
1!
1)

#370000
0!
b10 #
b11111111100010101111111111111111111111111010010111111111111111111111111110000011 (
0)
b10 +
b10 /

#375000
1!
b10 &
b100011101000101010101000011000100110000 '
1)
b10 .
b0 /

#380000
0!
b0 #
b11111111111001011111111111111111111111111000101011111111111111111111111110000001 (
0)
b0 +
b10 /

