3_2/project_3_2/project_3_2.sim/sim_1/behav/xsim/simulate.log
Time resolution is 1 ps
Time=0 Clk=0 R=0 S=0 U/D=1 Load=0000 Q= x(xxxx)
=== 十进制加减法计数器测试开始 ===
=== 测试1：异步复位 ===
Time=10000 Clk=0 R=1 S=0 U/D=1 Load=0000 Q= 0(0000)
Time=20000 Clk=1 R=1 S=0 U/D=1 Load=0000 Q= 0(0000)
Time=40000 Clk=0 R=1 S=0 U/D=1 Load=0000 Q= 0(0000)
Time=50000 Clk=0 R=0 S=0 U/D=1 Load=0000 Q= 0(0000)
Time=60000 Clk=1 R=0 S=0 U/D=1 Load=0000 Q= 1(0001)
=== 测试2：同步置位 - 正常预置数5 ===
Time=75000 Clk=1 R=0 S=1 U/D=1 Load=0101 Q= 1(0001)
Time=80000 Clk=0 R=0 S=1 U/D=1 Load=0101 Q= 1(0001)
Time=100000 Clk=1 R=0 S=1 U/D=1 Load=0101 Q= 5(0101)
Time=115000 Clk=1 R=0 S=0 U/D=1 Load=0101 Q= 5(0101)
Time=120000 Clk=0 R=0 S=0 U/D=1 Load=0101 Q= 5(0101)
=== 测试3：加法计数 ===
Time=140000 Clk=1 R=0 S=0 U/D=1 Load=0101 Q= 6(0110)
Time=160000 Clk=0 R=0 S=0 U/D=1 Load=0101 Q= 6(0110)
Time=180000 Clk=1 R=0 S=0 U/D=1 Load=0101 Q= 7(0111)
Time=200000 Clk=0 R=0 S=0 U/D=1 Load=0101 Q= 7(0111)
Time=220000 Clk=1 R=0 S=0 U/D=1 Load=0101 Q= 8(1000)
Time=240000 Clk=0 R=0 S=0 U/D=1 Load=0101 Q= 8(1000)
Time=260000 Clk=1 R=0 S=0 U/D=1 Load=0101 Q= 9(1001)
Time=280000 Clk=0 R=0 S=0 U/D=1 Load=0101 Q= 9(1001)
=== 测试4：减法计数 ===
Time=300000 Clk=1 R=0 S=0 U/D=1 Load=0101 Q= 0(0000)
Time=305000 Clk=1 R=0 S=0 U/D=0 Load=0101 Q= 0(0000)
Time=320000 Clk=0 R=0 S=0 U/D=0 Load=0101 Q= 0(0000)
Time=340000 Clk=1 R=0 S=0 U/D=0 Load=0101 Q= 9(1001)
Time=360000 Clk=0 R=0 S=0 U/D=0 Load=0101 Q= 9(1001)
Time=380000 Clk=1 R=0 S=0 U/D=0 Load=0101 Q= 8(1000)
Time=400000 Clk=0 R=0 S=0 U/D=0 Load=0101 Q= 8(1000)
Time=420000 Clk=1 R=0 S=0 U/D=0 Load=0101 Q= 7(0111)
Time=440000 Clk=0 R=0 S=0 U/D=0 Load=0101 Q= 7(0111)
Time=460000 Clk=1 R=0 S=0 U/D=0 Load=0101 Q= 6(0110)
=== 测试5：同步置位 - 预置数12（加法模式）===
Time=470000 Clk=1 R=0 S=1 U/D=1 Load=1100 Q= 6(0110)
Time=480000 Clk=0 R=0 S=1 U/D=1 Load=1100 Q= 6(0110)
Time=500000 Clk=1 R=0 S=1 U/D=1 Load=1100 Q= 0(0000)
Time=510000 Clk=1 R=0 S=0 U/D=1 Load=1100 Q= 0(0000)
Time=520000 Clk=0 R=0 S=0 U/D=1 Load=1100 Q= 0(0000)
Time=540000 Clk=1 R=0 S=0 U/D=1 Load=1100 Q= 1(0001)
Time=560000 Clk=0 R=0 S=0 U/D=1 Load=1100 Q= 1(0001)
Time=580000 Clk=1 R=0 S=0 U/D=1 Load=1100 Q= 2(0010)
=== 测试6：同步置位 - 预置数15（减法模式）===
Time=595000 Clk=1 R=0 S=1 U/D=0 Load=1111 Q= 2(0010)
Time=600000 Clk=0 R=0 S=1 U/D=0 Load=1111 Q= 2(0010)
Time=620000 Clk=1 R=0 S=1 U/D=0 Load=1111 Q= 9(1001)
Time=635000 Clk=1 R=0 S=0 U/D=0 Load=1111 Q= 9(1001)
Time=640000 Clk=0 R=0 S=0 U/D=0 Load=1111 Q= 9(1001)
Time=660000 Clk=1 R=0 S=0 U/D=0 Load=1111 Q= 8(1000)
Time=680000 Clk=0 R=0 S=0 U/D=0 Load=1111 Q= 8(1000)
Time=700000 Clk=1 R=0 S=0 U/D=0 Load=1111 Q= 7(0111)
=== 测试7：复位优先级 ===
Time=720000 Clk=0 R=1 S=1 U/D=1 Load=0111 Q= 0(0000)
Time=740000 Clk=1 R=1 S=1 U/D=1 Load=0111 Q= 0(0000)
Time=750000 Clk=1 R=0 S=0 U/D=1 Load=0111 Q= 0(0000)
Time=760000 Clk=0 R=0 S=0 U/D=1 Load=0111 Q= 0(0000)
Time=780000 Clk=1 R=0 S=0 U/D=1 Load=0111 Q= 1(0001)
=== 所有测试完成 ===
$finish called at time : 790 ns : File "/home/leo/vivado_project/3_2/project_3_2/project_3_2.srcs/sim_1/new/test.v" Line 80
