2_3/2_3.sim/sim_1/behav/xsim/simulate.log
Vivado Simulator 2020.2
Time resolution is 1 ps
Time	opcode	a	b	out

=== 测试1: 加法运算 ===
0	00	00	00	000
10000	00	00	10	010
20000	00	10	00	010
30000	00	10	10	100

=== 测试2: 减法运算 ===
40000	01	00	00	000
50000	01	00	10	110
60000	01	10	00	010
70000	01	10	10	000

=== 测试3: 与运算 ===
80000	10	00	00	000
90000	10	00	10	000
100000	10	10	00	000
110000	10	10	10	010

=== 测试4: 或运算 ===
120000	11	00	00	000
130000	11	00	10	010
140000	11	10	00	010
150000	11	10	10	010

=== 测试5: 边界情况 ===
160000	00	11	11	110
170000	01	11	00	011
180000	01	00	11	101
190000	10	11	11	011
200000	11	11	11	011

=== 仿真完成 ===
$finish called at time : 210 ns : File "E:/xilinx/vivado_project/2_3/2_3.srcs/sim_1/new/test.v" Line 83
