4/4.sim/sim_1/behav/xsim/simulate.log
Time resolution is 1 ps
Time	Rstn	Coin	Sell	Change	State
----------------------------------------
20	1	00	0	0	0

=== 测试1: 异步复位 ===
40	0	00	0	0	0
60	1	00	0	0	0

=== 测试2: 投入0.5元 ===
60	1	00	0	0	0
80	1	01	0	0	1

=== 测试3: 再投入0.5元 ===
100	1	00	0	0	1
120	1	01	0	0	2

=== 测试4: 投入1元（达到2元，出货不找零）===
140	1	00	0	0	2
160	1	10	1	0	0

=== 测试5: 回到初始状态 ===
180	1	00	0	0	0

=== 测试6: 投入1元 ===
200	1	10	0	0	2

=== 测试7: 再投入0.5元 ===
220	1	00	0	0	2
240	1	01	0	0	3

=== 测试8: 再投入1元（达到2.5元，出货并找零）===
260	1	00	0	0	3
280	1	10	1	1	0

=== 测试9: 回到初始状态 ===
300	1	00	0	0	0

=== 测试10: 异常输入测试（coin=11）===
320	1	11	0	0	0

=== 仿真完成 ===
$finish called at time : 420 ns : File "/home/leo/vivado_project/4/4.srcs/sim_1/new/test.v" Line 125
