4/4.sim/sim_1/behav/xsim/vending_machine.vcd
$date
   Tue Nov 18 11:20:18 2025
$end

$version
  2023.2
  $dumpfile ("vending_machine.vcd") 
$end

$timescale
  1ps
$end

$scope module tb_vending_machine $end
$var reg 1 ! clk $end
$var reg 1 " rstn $end
$var reg 2 # coin [1:0] $end
$var wire 1 $ sell $end
$var wire 1 % change $end
$scope module uut $end
$var wire 1 & clk $end
$var wire 1 ' rstn $end
$var wire 2 ( coin [1:0] $end
$var reg 1 ) sell $end
$var reg 1 * change $end
$var reg 3 + current_state [2:0] $end
$var reg 3 , next_state [2:0] $end
$upscope $end
$scope task display_state $end
$var reg 3 - state [2:0] $end
$upscope $end
$scope task display_coin $end
$var reg 2 . coin_val [1:0] $end
$upscope $end
$upscope $end
$enddefinitions $end

#0
$dumpvars
0!
0"
b0 #
0$
0%
0&
0'
b0 (
0)
0*
b0 +
b0 ,
bx -
bx .
$end

#5000
1!
1&

#10000
0!
1"
0&
1'
b0 -
b0 .

#15000
1!
1&

#20000
0!
b1 #
0&
b1 (
b1 ,

#25000
1!
1&
b1 +
b10 ,

#30000
0!
0&
b1 -
b1 .

#35000
1!
1&
b10 +
b11 ,

#40000
0!
0&
b10 -

#45000
1!
1&
b11 +
b100 ,

#50000
0!
0&
b11 -

#55000
1!
1$
1&
1)
b100 +
b0 ,

#60000
0!
b0 #
0&
b0 (
b100 -

#65000
1!
0$
1&
0)
b0 +

#70000
0!
0&
b0 -
b0 .

#75000
1!
1&

#80000
0!
0&

#85000
1!
1&

#90000
0!
b10 #
0&
b10 (
b10 ,

#95000
1!
1&
b10 +
b100 ,

#100000
0!
0&
b10 -
b10 .

#105000
1!
1$
1&
1)
b100 +
b0 ,

#110000
0!
b0 #
0&
b0 (
b100 -

#115000
1!
0$
1&
0)
b0 +

#120000
0!
0&
b0 -
b0 .

#125000
1!
1&

#130000
0!
0&

#135000
1!
1&

#140000
0!
b10 #
0&
b10 (
b10 ,

#145000
1!
1&
b10 +
b100 ,

#150000
0!
b1 #
0&
b1 (
b11 ,
b10 -
b10 .

#155000
1!
1&
b11 +
b100 ,

#160000
0!
b10 #
0&
b10 (
b101 ,
b11 -
b1 .

#165000
1!
1$
1%
1&
1)
1*
b101 +
b0 ,

#170000
0!
b0 #
0&
b0 (
b101 -
b10 .

#175000
1!
0$
0%
1&
0)
0*
b0 +

#180000
b0 -
b0 .
